…
## Load data

Loading data from "data.csv" file:

```r
data_raw <- read.csv("data.csv", stringsAsFactors = FALSE)
df_raw <- tbl_df(data_raw)
df_raw
```

```
## # A tibble: 235,790 x 51
##        id idsito idmodel idbrand   lat   lon ageinmonths  anno     day
##     <int>  <dbl>   <dbl>   <dbl> <dbl> <dbl>       <dbl> <int>   <dbl>
##  1  97595 0.425   0.0830  0.0830 0.437 0.631      1.00    2012 0.00300
##  2  97606 0.250   0.208   0.0830 0.437 0.620      0.0630  2012 0.00300
##  3  97637 0.350   0.375   0      0.439 0.626      0       2012 0.00300
##  4  97646 0.325   0.292   0.167  0.440 0.612      0.250   2012 0.00300
##  5  97772 0       0       0.333  0.436 0.626      0.719   2012 0.00300
##  6 104492 0.375   0.417   0      0.552 0.154      0.125   2012 0.00300
##  7 104528 0.400   0.458   0      0.553 0.160      0.125   2012 0.00300
##  8 104601 0.125   0.167   0.167  0.415 0.691      0       2012 0.00300
##  9 104637 0.225   0.208   0.0830 0.437 0.620      0.0630  2012 0.00300
## 10 169235 0.0750  0.0830  0.0830 0.437 0.624      1.00    2012 0.00300
## # ... with 235,780 more rows, and 42 more variables: ora <dbl>,
## #   data <chr>, temperatura_ambiente <dbl>, irradiamento <dbl>,
## #   pressure <dbl>, windspeed <dbl>, humidity <dbl>, icon <dbl>,
## #   dewpoint <dbl>, windbearing <dbl>, cloudcover <dbl>, tempi <dbl>,
## #   irri <dbl>, pressurei <dbl>, windspeedi <dbl>, humidityi <dbl>,
## #   dewpointi <dbl>, windbearingi <dbl>, cloudcoveri <dbl>, dist <dbl>,
## #   altitude <dbl>, azimuth <dbl>, altitudei <dbl>, azimuthi <dbl>,
## #   pcnm1 <dbl>, pcnm2 <dbl>, pcnm3 <dbl>, pcnm4 <dbl>, pcnm5 <dbl>,
## #   pcnm6 <dbl>, pcnm7 <dbl>, pcnm8 <dbl>, pcnm9 <dbl>, pcnm10 <dbl>,
…
## Clean data

At first incomplete rows are filtered out. Then id-like, meta-data and unrecognized columns are ommited. Finally columns are renamed.


```r
df_cleaner <- df_raw %>% na.omit %>%
  select(-(idsito:idbrand), -icon, -(tempi:cloudcoveri), -(altitudei:pcnm15), -irri_pvgis_mod) %>% 
  rename(latitude = lat, longitude = lon, device_age = ageinmonths, year = anno, hour = ora, date = data, ambient_temperature = temperatura_ambiente, irradiation = irradiamento, wind_speed = windspeed, dew_point = dewpoint, wind_bearing = windbearing, cloud_coverage = cloudcover, distance = dist, irradiation_pvgis_modifier = irr_pvgis_mod, output_power = kwh) %>% 
  print
```

```
## # A tibble: 235,790 x 21
##        id latitude longitude device_age  year     day  hour date         
##     <int>    <dbl>     <dbl>      <dbl> <int>   <dbl> <dbl> <chr>        
##  1  97595    0.437     0.631     1.00    2012 0.00300     0 1/2/2012 2:00
##  2  97606    0.437     0.620     0.0630  2012 0.00300     0 1/2/2012 2:00
##  3  97637    0.439     0.626     0       2012 0.00300     0 1/2/2012 2:00
##  4  97646    0.440     0.612     0.250   2012 0.00300     0 1/2/2012 2:00
##  5  97772    0.436     0.626     0.719   2012 0.00300     0 1/2/2012 2:00
##  6 104492    0.552     0.154     0.125   2012 0.00300     0 1/2/2012 2:00
##  7 104528    0.553     0.160     0.125   2012 0.00300     0 1/2/2012 2:00
##  8 104601    0.415     0.691     0       2012 0.00300     0 1/2/2012 2:00
##  9 104637    0.437     0.620     0.0630  2012 0.00300     0 1/2/2012 2:00
## 10 169235    0.437     0.624     1.00    2012 0.00300     0 1/2/2012 2:00
## # ... with 235,780 more rows, and 13 more variables:
## #   ambient_temperature <dbl>, irradiation <dbl>, pressure <dbl>,
## #   wind_speed <dbl>, humidity <dbl>, dew_point <dbl>, wind_bearing <dbl>,
## #   cloud_coverage <dbl>, distance <dbl>, altitude <dbl>, azimuth <dbl>,
## #   irradiation_pvgis_modifier <dbl>, output_power <dbl>
```

## Renormalize data where needed

Most values contain normalized values, mostly there's no need to renormalizing them (also frequently renormalization is simply impossible - like device_age - there is no way to find out extreme values).


```r
df_clean <- df_cleaner %>% mutate(day = as.integer(day * 365), hour = as.integer(hour * 24), ambient_temperature = norm(ambient_temperature), irradiation = norm(irradiation), pressure = norm(pressure), wind_speed = norm(wind_speed), humidity = norm(humidity), dew_point = norm(dew_point), wind_bearing = norm(wind_bearing)) %>% print 
```

```
## # A tibble: 235,790 x 21
##        id latitude longitude device_age  year   day  hour date         
##     <int>    <dbl>     <dbl>      <dbl> <int> <int> <int> <chr>        
##  1  97595    0.437     0.631     1.00    2012     1     0 1/2/2012 2:00
##  2  97606    0.437     0.620     0.0630  2012     1     0 1/2/2012 2:00
##  3  97637    0.439     0.626     0       2012     1     0 1/2/2012 2:00
##  4  97646    0.440     0.612     0.250   2012     1     0 1/2/2012 2:00
##  5  97772    0.436     0.626     0.719   2012     1     0 1/2/2012 2:00
##  6 104492    0.552     0.154     0.125   2012     1     0 1/2/2012 2:00
##  7 104528    0.553     0.160     0.125   2012     1     0 1/2/2012 2:00
##  8 104601    0.415     0.691     0       2012     1     0 1/2/2012 2:00
##  9 104637    0.437     0.620     0.0630  2012     1     0 1/2/2012 2:00
## 10 169235    0.437     0.624     1.00    2012     1     0 1/2/2012 2:00
## # ... with 235,780 more rows, and 13 more variables:
## #   ambient_temperature <dbl>, irradiation <dbl>, pressure <dbl>,
## #   wind_speed <dbl>, humidity <dbl>, dew_point <dbl>, wind_bearing <dbl>,
## #   cloud_coverage <dbl>, distance <dbl>, altitude <dbl>, azimuth <dbl>,
## #   irradiation_pvgis_modifier <dbl>, output_power <dbl>
```
…
